{
  "todos": [
    {
      "id": 1,
      "text": "Beli jeruk",
      "done": true
    },
    {
      "id": 2,
      "text": "Beli mangga",
      "done": false
    },
    {
      "id": 3,
      "text": "Beli air",
      "done": true
    },
    {
      "id": "[object Object],[object Object],[object Object]1",
      "text": "allo",
      "done": false
    },
    {
      "id": "[object Object],[object Object],[object Object],[object Object]1",
      "text": "Hallllo",
      "done": false
    },
    {
      "id": 4,
      "text": "Testing",
      "done": false
    },
    {
      "id": 7,
      "text": "Tidak semudah itu",
      "done": false
    }
  ]
}